module gitlab.com/staticvoidlabs/fynedemogo

go 1.17

require (
	fyne.io/fyne v1.4.3
	fyne.io/fyne/v2 v2.1.4 // indirect
	github.com/BurntSushi/toml v0.4.1 // indirect
	github.com/Kodeworks/golang-image-ico v0.0.0-20141118225523-73f0f4cfade9 // indirect
	github.com/akavel/rsrc v0.8.0 // indirect
	github.com/cpuguy83/go-md2man/v2 v2.0.0-20190314233015-f79a8a8ca69d // indirect
	github.com/davecgh/go-spew v1.1.1 // indirect
	github.com/fredbi/uri v0.0.0-20181227131451-3dcfdacbaaf3 // indirect
	github.com/fsnotify/fsnotify v1.4.9 // indirect
	github.com/go-gl/gl v0.0.0-20210813123233-e4099ee2221f // indirect
	github.com/go-gl/glfw/v3.3/glfw v0.0.0-20211024062804-40e447a793be // indirect
	github.com/go-ole/go-ole v1.2.6 // indirect
	github.com/godbus/dbus/v5 v5.0.4 // indirect
	github.com/goki/freetype v0.0.0-20181231101311-fa8a33aabaff // indirect
	github.com/jackmordaunt/icns v0.0.0-20181231085925-4f16af745526 // indirect
	github.com/josephspurrier/goversioninfo v0.0.0-20200309025242-14b0ab84c6ca // indirect
	github.com/lucor/goinfo v0.0.0-20210802170112-c078a2b0f08b // indirect
	github.com/nfnt/resize v0.0.0-20180221191011-83c6a9932646 // indirect
	github.com/pkg/errors v0.9.1 // indirect
	github.com/pmezard/go-difflib v1.0.0 // indirect
	github.com/russross/blackfriday/v2 v2.0.1 // indirect
	github.com/shurcooL/sanitized_anchor_name v1.0.0 // indirect
	github.com/srwiley/oksvg v0.0.0-20200311192757-870daf9aa564 // indirect
	github.com/srwiley/rasterx v0.0.0-20200120212402-85cb7272f5e9 // indirect
	github.com/stretchr/testify v1.5.1 // indirect
	github.com/urfave/cli/v2 v2.3.0 // indirect
	github.com/yuin/goldmark v1.3.8 // indirect
	golang.org/x/image v0.0.0-20200430140353-33d19683fad8 // indirect
	golang.org/x/mod v0.4.2 // indirect
	golang.org/x/net v0.0.0-20210405180319-a5a99cb37ef4 // indirect
	golang.org/x/sys v0.0.0-20210630005230-0f9fa26af87c // indirect
	golang.org/x/text v0.3.3 // indirect
	golang.org/x/tools v0.1.5 // indirect
	golang.org/x/xerrors v0.0.0-20200804184101-5ec99f83aff1 // indirect
	gopkg.in/yaml.v2 v2.2.8 // indirect
)
